{
  "posts": [
    {
      "number": 1,
      "name": "hi!",
      "full_name": "daily/2015/05/09/hi! #api #dev",
      "wip": true,
      "body_md": "# Getting Started",
      "body_html": "<h1 id=\"1-0-0\" name=\"1-0-0\">\n<a class=\"anchor\" href=\"#1-0-0\"><i class=\"fa fa-link\"></i><span class=\"hidden\" data-text=\"Getting Started\"> &gt; Getting Started</span></a>Getting Started</h1>\n",
      "created_at": "2015-05-09T11:54:50+09:00",
      "updated_at": "2015-05-09T11:54:51+09:00",
      "message": "Add Getting Started section",
      "url": "https://docs.esa.io/posts/1",
      "tags": [
        "api", "dev"
      ],
      "category": "daily/2015/05/09",
      "revision_number": 1,
      "created_by": {
        "name": "Nagasawa Hiroki",
        "screen_name": "hiroki_nagasawa",
        "icon": "https://img.esa.io/uploads/production/users/7823/icon/thumb_m_515f07fb32acee87474905b96cdc3c15.jpg"
      },
      "updated_by": {
        "name": "NAGASAWA HIROKI",
        "screen_name": "pixyzehn",
        "icon": "https://img.esa.io/uploads/production/users/7823/icon/thumb_m_515f07fb32acee87474905b96cdc3c15.jpg"
      },
      "kind": "flow",
      "comments_count": 0,
      "tasks_count": 0,
      "done_tasks_count": 0,
      "stargazers_count": 0,
      "watchers_count": 0,
      "star": false,
      "watch": false
    }
  ],
  "prev_page": null,
  "next_page": 2,
  "total_count": 30,
  "page": 1,
  "per_page": 20,
  "max_per_page": 100
}
