{
  "teams": [
    {
      "name": "docs",
      "privacy": "open",
      "description": "esa.io official documents",
      "icon": "https://img.esa.io/uploads/production/teams/105/icon/thumb_m_0537ab827c4b0c18b60af6cdd94f239c.png",
      "url": "https://docs.esa.io/"
    }
  ],
  "prev_page": null,
  "next_page": 2,
  "total_count": 30,
  "page": 1,
  "per_page": 20,
  "max_per_page": 100
}
