{
  "watchers": [
    {
      "created_at": "2016-05-05T11:40:53+09:00",
      "user": {
        "name": "Hiroki Nagasawa",
        "screen_name": "hiroki_nagasawa",
        "icon": "https://img.esa.io/uploads/production/users/7823/icon/thumb_m_515f07fb32acee87474905b96cdc3c15.jpg"
      }
    }
  ],
  "prev_page": null,
  "next_page": 2,
  "total_count": 30,
  "page": 1,
  "per_page": 20,
  "max_per_page": 100
}
